tb_uart_rx_directed.vcd
$date
	Wed Apr 15 15:02:33 2026
$end
$version
	ModelSim Version 2020.1
$end
$timescale
	1ps
$end

$scope module tb_uart_rx_directed $end
$var parameter 32 ! CLK_FREQ $end
$var parameter 32 " BAUD_RATE $end
$var parameter 32 # CLKS_PER_BIT $end
$var parameter 32 $ CLK_PERIOD $end
$var reg 1 % clk $end
$var reg 1 & rst_n $end
$var reg 1 ' rx $end
$var reg 8 ( rx_data [7:0] $end
$var reg 1 ) rx_done $end
$var reg 1 * rx_error $end
$var integer 32 + pass_count $end
$var integer 32 , fail_count $end

$scope task send_uart_frame $end
$upscope $end

$scope task check $end
$upscope $end

$scope module dut $end
$var parameter 32 - CLK_FREQ $end
$var parameter 32 . BAUD_RATE $end
$var parameter 32 / CLKS_PER_BIT $end
$var parameter 32 0 HALF_BIT $end
$var wire 1 1 clk $end
$var wire 1 2 rst_n $end
$var wire 1 3 rx $end
$var reg 8 4 rx_data [7:0] $end
$var reg 1 5 rx_done $end
$var reg 1 6 rx_error $end
$var reg 3 7 state [2:0] $end
$var reg 16 8 clk_count [15:0] $end
$var reg 3 9 bit_index [2:0] $end
$var reg 8 : rx_shift [7:0] $end
$var reg 1 ; rx_sync1 $end
$var reg 1 < rx_sync2 $end
$var reg 1 = parity_calc $end
$upscope $end
$upscope $end
$enddefinitions $end
#0
$dumpvars
0%
0&
1'
b0 (
0)
0*
b0 4
05
06
b0 7
b0 8
b0 9
b0 :
1;
1<
0=
b10111110101111000010000000 !
b11100001000000000 "
b110110010 #
b10100 $
b10111110101111000010000000 -
b11100001000000000 .
b110110010 /
b11011001 0
b0 +
b0 ,
01
02
13
$end
#10000
1%
11
#20000
0%
01
#30000
1%
11
#40000
0%
01
#50000
1%
11
#60000
0%
01
#70000
1%
11
#80000
0%
01
#90000
1%
11
#100000
0%
01
#110000
1%
11
#120000
0%
01
#130000
1%
11
#140000
0%
01
#150000
1%
11
#160000
0%
01
#170000
1%
11
#180000
0%
01
#190000
1%
11
1&
12
#200000
0%
01
#210000
1%
11
#220000
0%
01
#230000
1%
11
#240000
0%
01
#250000
1%
11
#260000
0%
01
#270000
1%
11
#280000
0%
01
#290000
1%
11
0'
03
#300000
0%
01
#310000
1%
11
0;
#320000
0%
01
#330000
1%
11
0<
#340000
0%
01
#350000
1%
11
b1 7
#360000
0%
01
#370000
1%
11
b1 8
#380000
0%
01
#390000
1%
11
b10 8
#400000
0%
01
#410000
1%
11
b11 8
#420000
0%
01
#430000
1%
11
b100 8
#440000
0%
01
#450000
1%
11
b101 8
#460000
0%
01
#470000
1%
11
b110 8
#480000
0%
01
#490000
1%
11
b111 8
#500000
0%
01
#510000
1%
11
b1000 8
#520000
0%
01
#530000
1%
11
b1001 8
#540000
0%
01
#550000
1%
11
b1010 8
#560000
0%
01
#570000
1%
11
b1011 8
#580000
0%
01
#590000
1%
11
b1100 8
#600000
0%
01
#610000
1%
11
b1101 8
#620000
0%
01
#630000
1%
11
b1110 8
#640000
0%
01
#650000
1%
11
b1111 8
#660000
0%
01
#670000
1%
11
b10000 8
#680000
0%
01
#690000
1%
11
b10001 8
#700000
0%
01
#710000
1%
11
b10010 8
#720000
0%
01
#730000
1%
11
b10011 8
#740000
0%
01
#750000
1%
11
b10100 8
#760000
0%
01
#770000
1%
11
b10101 8
#780000
0%
01
#790000
1%
11
b10110 8
#800000
0%
01
#810000
1%
11
b10111 8
#820000
0%
01
#830000
1%
11
b11000 8
#840000
0%
01
#850000
1%
11
b11001 8
#860000
0%
01
#870000
1%
11
b11010 8
#880000
0%
01
#890000
1%
11
b11011 8
#900000
0%
01
#910000
1%
11
b11100 8
#920000
0%
01
#930000
1%
11
b11101 8
#940000
0%
01
#950000
1%
11
b11110 8
#960000
0%
01
#970000
1%
11
b11111 8
#980000
0%
01
#990000
1%
11
b100000 8
#1000000
0%
01
#1010000
1%
11
b100001 8
#1020000
0%
01
#1030000
1%
11
b100010 8
#1040000
0%
01
#1050000
1%
11
b100011 8
#1060000
0%
01
#1070000
1%
11
b100100 8
#1080000
0%
01
#1090000
1%
11
b100101 8
#1100000
0%
01
#1110000
1%
11
b100110 8
#1120000
0%
01
#1130000
1%
11
b100111 8
#1140000
0%
01
#1150000
1%
11
b101000 8
#1160000
0%
01
#1170000
1%
11
b101001 8
#1180000
0%
01
#1190000
1%
11
b101010 8
#1200000
0%
01
#1210000
1%
11
b101011 8
#1220000
0%
01
#1230000
1%
11
b101100 8
#1240000
0%
01
#1250000
1%
11
b101101 8
#1260000
0%
01
#1270000
1%
11
b101110 8
#1280000
0%
01
#1290000
1%
11
b101111 8
#1300000
0%
01
#1310000
1%
11
b110000 8
#1320000
0%
01
#1330000
1%
11
b110001 8
#1340000
0%
01
#1350000
1%
11
b110010 8
#1360000
0%
01
#1370000
1%
11
b110011 8
#1380000
0%
01
#1390000
1%
11
b110100 8
#1400000
0%
01
#1410000
1%
11
b110101 8
#1420000
0%
01
#1430000
1%
11
b110110 8
#1440000
0%
01
#1450000
1%
11
b110111 8
#1460000
0%
01
#1470000
1%
11
b111000 8
#1480000
0%
01
#1490000
1%
11
b111001 8
#1500000
0%
01
#1510000
1%
11
b111010 8
#1520000
0%
01
#1530000
1%
11
b111011 8
#1540000
0%
01
#1550000
1%
11
b111100 8
#1560000
0%
01
#1570000
1%
11
b111101 8
#1580000
0%
01
#1590000
1%
11
b111110 8
#1600000
0%
01
#1610000
1%
11
b111111 8
#1620000
0%
01
#1630000
1%
11
b1000000 8
#1640000
0%
01
#1650000
1%
11
b1000001 8
#1660000
0%
01
#1670000
1%
11
b1000010 8
#1680000
0%
01
#1690000
1%
11
b1000011 8
#1700000
0%
01
#1710000
1%
11
b1000100 8
#1720000
0%
01
#1730000
1%
11
b1000101 8
#1740000
0%
01
#1750000
1%
11
b1000110 8
#1760000
0%
01
#1770000
1%
11
b1000111 8
#1780000
0%
01
#1790000
1%
11
b1001000 8
#1800000
0%
01
#1810000
1%
11
b1001001 8
#1820000
0%
01
#1830000
1%
11
b1001010 8
#1840000
0%
01
#1850000
1%
11
b1001011 8
#1860000
0%
01
#1870000
1%
11
b1001100 8
#1880000
0%
01
#1890000
1%
11
b1001101 8
#1900000
0%
01
#1910000
1%
11
b1001110 8
#1920000
0%
01
#1930000
1%
11
b1001111 8
#1940000
0%
01
#1950000
1%
11
b1010000 8
#1960000
0%
01
#1970000
1%
11
b1010001 8
#1980000
0%
01
#1990000
1%
11
b1010010 8
#2000000
0%
01
#2010000
1%
11
b1010011 8
#2020000
0%
01
#2030000
1%
11
b1010100 8
#2040000
0%
01
#2050000
1%
11
b1010101 8
#2060000
0%
01
#2070000
1%
11
b1010110 8
#2080000
0%
01
#2090000
1%
11
b1010111 8
#2100000
0%
01
#2110000
1%
11
b1011000 8
#2120000
0%
01
#2130000
1%
11
b1011001 8
#2140000
0%
01
#2150000
1%
11
b1011010 8
#2160000
0%
01
#2170000
1%
11
b1011011 8
#2180000
0%
01
#2190000
1%
11
b1011100 8
#2200000
0%
01
#2210000
1%
11
b1011101 8
#2220000
0%
01
#2230000
1%
11
b1011110 8
#2240000
0%
01
#2250000
1%
11
b1011111 8
#2260000
0%
01
#2270000
1%
11
b1100000 8
#2280000
0%
01
#2290000
1%
11
b1100001 8
#2300000
0%
01
#2310000
1%
11
b1100010 8
#2320000
0%
01
#2330000
1%
11
b1100011 8
#2340000
0%
01
#2350000
1%
11
b1100100 8
#2360000
0%
01
#2370000
1%
11
b1100101 8
#2380000
0%
01
#2390000
1%
11
b1100110 8
#2400000
0%
01
#2410000
1%
11
b1100111 8
#2420000
0%
01
#2430000
1%
11
b1101000 8
#2440000
0%
01
#2450000
1%
11
b1101001 8
#2460000
0%
01
#2470000
1%
11
b1101010 8
#2480000
0%
01
#2490000
1%
11
b1101011 8
#2500000
0%
01
#2510000
1%
11
b1101100 8
#2520000
0%
01
#2530000
1%
11
b1101101 8
#2540000
0%
01
#2550000
1%
11
b1101110 8
#2560000
0%
01
#2570000
1%
11
b1101111 8
#2580000
0%
01
#2590000
1%
11
b1110000 8
#2600000
0%
01
#2610000
1%
11
b1110001 8
#2620000
0%
01
#2630000
1%
11
b1110010 8
#2640000
0%
01
#2650000
1%
11
b1110011 8
#2660000
0%
01
#2670000
1%
11
b1110100 8
#2680000
0%
01
#2690000
1%
11
b1110101 8
#2700000
0%
01
#2710000
1%
11
b1110110 8
#2720000
0%
01
#2730000
1%
11
b1110111 8
#2740000
0%
01
#2750000
1%
11
b1111000 8
#2760000
0%
01
#2770000
1%
11
b1111001 8
#2780000
0%
01
#2790000
1%
11
b1111010 8
#2800000
0%
01
#2810000
1%
11
b1111011 8
#2820000
0%
01
#2830000
1%
11
b1111100 8
#2840000
0%
01
#2850000
1%
11
b1111101 8
#2860000
0%
01
#2870000
1%
11
b1111110 8
#2880000
0%
01
#2890000
1%
11
b1111111 8
#2900000
0%
01
#2910000
1%
11
b10000000 8
#2920000
0%
01
#2930000
1%
11
b10000001 8
#2940000
0%
01
#2950000
1%
11
b10000010 8
#2960000
0%
01
#2970000
1%
11
b10000011 8
#2980000
0%
01
#2990000
1%
11
b10000100 8
#3000000
0%
01
#3010000
1%
11
b10000101 8
#3020000
0%
01
#3030000
1%
11
b10000110 8
#3040000
0%
01
#3050000
1%
11
b10000111 8
#3060000
0%
01
#3070000
1%
11
b10001000 8
#3080000
0%
01
#3090000
1%
11
b10001001 8
#3100000
0%
01
#3110000
1%
11
b10001010 8
#3120000
0%
01
#3130000
1%
11
b10001011 8
#3140000
0%
01
#3150000
1%
11
b10001100 8
#3160000
0%
01
#3170000
1%
11
b10001101 8
#3180000
0%
01
#3190000
1%
11
b10001110 8
#3200000
0%
01
#3210000
1%
11
b10001111 8
#3220000
0%
01
#3230000
1%
11
b10010000 8
#3240000
0%
01
#3250000
1%
11
b10010001 8
#3260000
0%
01
#3270000
1%
11
b10010010 8
#3280000
0%
01
#3290000
1%
11
b10010011 8
#3300000
0%
01
#3310000
1%
11
b10010100 8
#3320000
0%
01
#3330000
1%
11
b10010101 8
#3340000
0%
01
#3350000
1%
11
b10010110 8
#3360000
0%
01
#3370000
1%
11
b10010111 8
#3380000
0%
01
#3390000
1%
11
b10011000 8
#3400000
0%
01
#3410000
1%
11
b10011001 8
#3420000
0%
01
#3430000
1%
11
b10011010 8
#3440000
0%
01
#3450000
1%
11
b10011011 8
#3460000
0%
01
#3470000
1%
11
b10011100 8
#3480000
0%
01
#3490000
1%
11
b10011101 8
#3500000
0%
01
#3510000
1%
11
b10011110 8
#3520000
0%
01
#3530000
1%
11
b10011111 8
#3540000
0%
01
#3550000
1%
11
b10100000 8
#3560000
0%
01
#3570000
1%
11
b10100001 8
#3580000
0%
01
#3590000
1%
11
b10100010 8
#3600000
0%
01
#3610000
1%
11
b10100011 8
#3620000
0%
01
#3630000
1%
11
b10100100 8
#3640000
0%
01
#3650000
1%
11
b10100101 8
#3660000
0%
01
#3670000
1%
11
b10100110 8
#3680000
0%
01
#3690000
1%
11
b10100111 8
#3700000
0%
01
#3710000
1%
11
b10101000 8
#3720000
0%
01
#3730000
1%
11
b10101001 8
#3740000
0%
01
#3750000
1%
11
b10101010 8
#3760000
0%
01
#3770000
1%
11
b10101011 8
#3780000
0%
01
#3790000
1%
11
b10101100 8
#3800000
0%
01
#3810000
1%
11
b10101101 8
#3820000
0%
01
#3830000
1%
11
b10101110 8
#3840000
0%
01
#3850000
1%
11
b10101111 8
#3860000
0%
01
#3870000
1%
11
b10110000 8
#3880000
0%
01
#3890000
1%
11
b10110001 8
#3900000
0%
01
#3910000
1%
11
b10110010 8
#3920000
0%
01
#3930000
1%
11
b10110011 8
#3940000
0%
01
#3950000
1%
11
b10110100 8
#3960000
0%
01
#3970000
1%
11
b10110101 8
#3980000
0%
01
#3990000
1%
11
b10110110 8
#4000000
0%
01
#4010000
1%
11
b10110111 8
#4020000
0%
01
#4030000
1%
11
b10111000 8
#4040000
0%
01
#4050000
1%
11
b10111001 8
#4060000
0%
01
#4070000
1%
11
b10111010 8
#4080000
0%
01
#4090000
1%
11
b10111011 8
#4100000
0%
01
#4110000
1%
11
b10111100 8
#4120000
0%
01
#4130000
1%
11
b10111101 8
#4140000
0%
01
#4150000
1%
11
b10111110 8
#4160000
0%
01
#4170000
1%
11
b10111111 8
#4180000
0%
01
#4190000
1%
11
b11000000 8
#4200000
0%
01
#4210000
1%
11
b11000001 8
#4220000
0%
01
#4230000
1%
11
b11000010 8
#4240000
0%
01
#4250000
1%
11
b11000011 8
#4260000
0%
01
#4270000
1%
11
b11000100 8
#4280000
0%
01
#4290000
1%
11
b11000101 8
#4300000
0%
01
#4310000
1%
11
b11000110 8
#4320000
0%
01
#4330000
1%
11
b11000111 8
#4340000
0%
01
#4350000
1%
11
b11001000 8
#4360000
0%
01
#4370000
1%
11
b11001001 8
#4380000
0%
01
#4390000
1%
11
b11001010 8
#4400000
0%
01
#4410000
1%
11
b11001011 8
#4420000
0%
01
#4430000
1%
11
b11001100 8
#4440000
0%
01
#4450000
1%
11
b11001101 8
#4460000
0%
01
#4470000
1%
11
b11001110 8
#4480000
0%
01
#4490000
1%
11
b11001111 8
#4500000
0%
01
#4510000
1%
11
b11010000 8
#4520000
0%
01
#4530000
1%
11
b11010001 8
#4540000
0%
01
#4550000
1%
11
b11010010 8
#4560000
0%
01
#4570000
1%
11
b11010011 8
#4580000
0%
01
#4590000
1%
11
b11010100 8
#4600000
0%
01
#4610000
1%
11
b11010101 8
#4620000
0%
01
#4630000
1%
11
b11010110 8
#4640000
0%
01
#4650000
1%
11
b11010111 8
#4660000
0%
01
#4670000
1%
11
b11011000 8
#4680000
0%
01
#4690000
1%
11
b0 8
b10 7
#4700000
0%
01
#4710000
1%
11
b1 8
#4720000
0%
01
#4730000
1%
11
b10 8
#4740000
0%
01
#4750000
1%
11
b11 8
#4760000
0%
01
#4770000
1%
11
b100 8
#4780000
0%
01
#4790000
1%
11
b101 8
#4800000
0%
01
#4810000
1%
11
b110 8
#4820000
0%
01
#4830000
1%
11
b111 8
#4840000
0%
01
#4850000
1%
11
b1000 8
#4860000
0%
01
#4870000
1%
11
b1001 8
#4880000
0%
01
#4890000
1%
11
b1010 8
#4900000
0%
01
#4910000
1%
11
b1011 8
#4920000
0%
01
#4930000
1%
11
b1100 8
#4940000
0%
01
#4950000
1%
11
b1101 8
#4960000
0%
01
#4970000
1%
11
b1110 8
#4980000
0%
01
#4990000
1%
11
b1111 8
#5000000
0%
01
#5010000
1%
11
b10000 8
#5020000
0%
01
#5030000
1%
11
b10001 8
#5040000
0%
01
#5050000
1%
11
b10010 8
#5060000
0%
01
#5070000
1%
11
b10011 8
#5080000
0%
01
#5090000
1%
11
b10100 8
#5100000
0%
01
#5110000
1%
11
b10101 8
#5120000
0%
01
#5130000
1%
11
b10110 8
#5140000
0%
01
#5150000
1%
11
b10111 8
#5160000
0%
01
#5170000
1%
11
b11000 8
#5180000
0%
01
#5190000
1%
11
b11001 8
#5200000
0%
01
#5210000
1%
11
b11010 8
#5220000
0%
01
#5230000
1%
11
b11011 8
#5240000
0%
01
#5250000
1%
11
b11100 8
#5260000
0%
01
#5270000
1%
11
b11101 8
#5280000
0%
01
#5290000
1%
11
b11110 8
#5300000
0%
01
#5310000
1%
11
b11111 8
#5320000
0%
01
#5330000
1%
11
b100000 8
#5340000
0%
01
#5350000
1%
11
b100001 8
#5360000
0%
01
#5370000
1%
11
b100010 8
#5380000
0%
01
#5390000
1%
11
b100011 8
#5400000
0%
01
#5410000
1%
11
b100100 8
#5420000
0%
01
#5430000
1%
11
b100101 8
#5440000
0%
01
#5450000
1%
11
b100110 8
#5460000
0%
01
#5470000
1%
11
b100111 8
#5480000
0%
01
#5490000
1%
11
b101000 8
#5500000
0%
01
#5510000
1%
11
b101001 8
#5520000
0%
01
#5530000
1%
11
b101010 8
#5540000
0%
01
#5550000
1%
11
b101011 8
#5560000
0%
01
#5570000
1%
11
b101100 8
#5580000
0%
01
#5590000
1%
11
b101101 8
#5600000
0%
01
#5610000
1%
11
b101110 8
#5620000
0%
01
#5630000
1%
11
b101111 8
#5640000
0%
01
#5650000
1%
11
b110000 8
#5660000
0%
01
#5670000
1%
11
b110001 8
#5680000
0%
01
#5690000
1%
11
b110010 8
#5700000
0%
01
#5710000
1%
11
b110011 8
#5720000
0%
01
#5730000
1%
11
b110100 8
#5740000
0%
01
#5750000
1%
11
b110101 8
#5760000
0%
01
#5770000
1%
11
b110110 8
#5780000
0%
01
#5790000
1%
11
b110111 8
#5800000
0%
01
#5810000
1%
11
b111000 8
#5820000
0%
01
#5830000
1%
11
b111001 8
#5840000
0%
01
#5850000
1%
11
b111010 8
#5860000
0%
01
#5870000
1%
11
b111011 8
#5880000
0%
01
#5890000
1%
11
b111100 8
#5900000
0%
01
#5910000
1%
11
b111101 8
#5920000
0%
01
#5930000
1%
11
b111110 8
#5940000
0%
01
#5950000
1%
11
b111111 8
#5960000
0%
01
#5970000
1%
11
b1000000 8
#5980000
0%
01
#5990000
1%
11
b1000001 8
#6000000
0%
01
#6010000
1%
11
b1000010 8
#6020000
0%
01
#6030000
1%
11
b1000011 8
#6040000
0%
01
#6050000
1%
11
b1000100 8
#6060000
0%
01
#6070000
1%
11
b1000101 8
#6080000
0%
01
#6090000
1%
11
b1000110 8
#6100000
0%
01
#6110000
1%
11
b1000111 8
#6120000
0%
01
#6130000
1%
11
b1001000 8
#6140000
0%
01
#6150000
1%
11
b1001001 8
#6160000
0%
01
#6170000
1%
11
b1001010 8
#6180000
0%
01
#6190000
1%
11
b1001011 8
#6200000
0%
01
#6210000
1%
11
b1001100 8
#6220000
0%
01
#6230000
1%
11
b1001101 8
#6240000
0%
01
#6250000
1%
11
b1001110 8
#6260000
0%
01
#6270000
1%
11
b1001111 8
#6280000
0%
01
#6290000
1%
11
b1010000 8
#6300000
0%
01
#6310000
1%
11
b1010001 8
#6320000
0%
01
#6330000
1%
11
b1010010 8
#6340000
0%
01
#6350000
1%
11
b1010011 8
#6360000
0%
01
#6370000
1%
11
b1010100 8
#6380000
0%
01
#6390000
1%
11
b1010101 8
#6400000
0%
01
#6410000
1%
11
b1010110 8
#6420000
0%
01
#6430000
1%
11
b1010111 8
#6440000
0%
01
#6450000
1%
11
b1011000 8
#6460000
0%
01
#6470000
1%
11
b1011001 8
#6480000
0%
01
#6490000
1%
11
b1011010 8
#6500000
0%
01
#6510000
1%
11
b1011011 8
#6520000
0%
01
#6530000
1%
11
b1011100 8
#6540000
0%
01
#6550000
1%
11
b1011101 8
#6560000
0%
01
#6570000
1%
11
b1011110 8
#6580000
0%
01
#6590000
1%
11
b1011111 8
#6600000
0%
01
#6610000
1%
11
b1100000 8
#6620000
0%
01
#6630000
1%
11
b1100001 8
#6640000
0%
01
#6650000
1%
11
b1100010 8
#6660000
0%
01
#6670000
1%
11
b1100011 8
#6680000
0%
01
#6690000
1%
11
b1100100 8
#6700000
0%
01
#6710000
1%
11
b1100101 8
#6720000
0%
01
#6730000
1%
11
b1100110 8
#6740000
0%
01
#6750000
1%
11
b1100111 8
#6760000
0%
01
#6770000
1%
11
b1101000 8
#6780000
0%
01
#6790000
1%
11
b1101001 8
#6800000
0%
01
#6810000
1%
11
b1101010 8
#6820000
0%
01
#6830000
1%
11
b1101011 8
#6840000
0%
01
#6850000
1%
11
b1101100 8
#6860000
0%
01
#6870000
1%
11
b1101101 8
#6880000
0%
01
#6890000
1%
11
b1101110 8
#6900000
0%
01
#6910000
1%
11
b1101111 8
#6920000
0%
01
#6930000
1%
11
b1110000 8
#6940000
0%
01
#6950000
1%
11
b1110001 8
#6960000
0%
01
#6970000
1%
11
b1110010 8
#6980000
0%
01
#6990000
1%
11
b1110011 8
#7000000
0%
01
#7010000
1%
11
b1110100 8
#7020000
0%
01
#7030000
1%
11
b1110101 8
#7040000
0%
01
#7050000
1%
11
b1110110 8
#7060000
0%
01
#7070000
1%
11
b1110111 8
#7080000
0%
01
#7090000
1%
11
b1111000 8
#7100000
0%
01
#7110000
1%
11
b1111001 8
#7120000
0%
01
#7130000
1%
11
b1111010 8
#7140000
0%
01
#7150000
1%
11
b1111011 8
#7160000
0%
01
#7170000
1%
11
b1111100 8
#7180000
0%
01
#7190000
1%
11
b1111101 8
#7200000
0%
01
#7210000
1%
11
b1111110 8
#7220000
0%
01
#7230000
1%
11
b1111111 8
#7240000
0%
01
#7250000
1%
11
b10000000 8
#7260000
0%
01
#7270000
1%
11
b10000001 8
#7280000
0%
01
#7290000
1%
11
b10000010 8
#7300000
0%
01
#7310000
1%
11
b10000011 8
#7320000
0%
01
#7330000
1%
11
b10000100 8
#7340000
0%
01
#7350000
1%
11
b10000101 8
#7360000
0%
01
#7370000
1%
11
b10000110 8
#7380000
0%
01
#7390000
1%
11
b10000111 8
#7400000
0%
01
#7410000
1%
11
b10001000 8
#7420000
0%
01
#7430000
1%
11
b10001001 8
#7440000
0%
01
#7450000
1%
11
b10001010 8
#7460000
0%
01
#7470000
1%
11
b10001011 8
#7480000
0%
01
#7490000
1%
11
b10001100 8
#7500000
0%
01
#7510000
1%
11
b10001101 8
#7520000
0%
01
#7530000
1%
11
b10001110 8
#7540000
0%
01
#7550000
1%
11
b10001111 8
#7560000
0%
01
#7570000
1%
11
b10010000 8
#7580000
0%
01
#7590000
1%
11
b10010001 8
#7600000
0%
01
#7610000
1%
11
b10010010 8
#7620000
0%
01
#7630000
1%
11
b10010011 8
#7640000
0%
01
#7650000
1%
11
b10010100 8
#7660000
0%
01
#7670000
1%
11
b10010101 8
#7680000
0%
01
#7690000
1%
11
b10010110 8
#7700000
0%
01
#7710000
1%
11
b10010111 8
#7720000
0%
01
#7730000
1%
11
b10011000 8
#7740000
0%
01
#7750000
1%
11
b10011001 8
#7760000
0%
01
#7770000
1%
11
b10011010 8
#7780000
0%
01
#7790000
1%
11
b10011011 8
#7800000
0%
01
#7810000
1%
11
b10011100 8
#7820000
0%
01
#7830000
1%
11
b10011101 8
#7840000
0%
01
#7850000
1%
11
b10011110 8
#7860000
0%
01
#7870000
1%
11
b10011111 8
#7880000
0%
01
#7890000
1%
11
b10100000 8
#7900000
0%
01
#7910000
1%
11
b10100001 8
#7920000
0%
01
#7930000
1%
11
b10100010 8
#7940000
0%
01
#7950000
1%
11
b10100011 8
#7960000
0%
01
#7970000
1%
11
b10100100 8
#7980000
0%
01
#7990000
1%
11
b10100101 8
#8000000
0%
01
#8010000
1%
11
b10100110 8
#8020000
0%
01
#8030000
1%
11
b10100111 8
#8040000
0%
01
#8050000
1%
11
b10101000 8
#8060000
0%
01
#8070000
1%
11
b10101001 8
#8080000
0%
01
#8090000
1%
11
b10101010 8
#8100000
0%
01
#8110000
1%
11
b10101011 8
#8120000
0%
01
#8130000
1%
11
b10101100 8
#8140000
0%
01
#8150000
1%
11
b10101101 8
#8160000
0%
01
#8170000
1%
11
b10101110 8
#8180000
0%
01
#8190000
1%
11
b10101111 8
#8200000
0%
01
#8210000
1%
11
b10110000 8
#8220000
0%
01
#8230000
1%
11
b10110001 8
#8240000
0%
01
#8250000
1%
11
b10110010 8
#8260000
0%
01
#8270000
1%
11
b10110011 8
#8280000
0%
01
#8290000
1%
11
b10110100 8
#8300000
0%
01
#8310000
1%
11
b10110101 8
#8320000
0%
01
#8330000
1%
11
b10110110 8
#8340000
0%
01
#8350000
1%
11
b10110111 8
#8360000
0%
01
#8370000
1%
11
b10111000 8
#8380000
0%
01
#8390000
1%
11
b10111001 8
#8400000
0%
01
#8410000
1%
11
b10111010 8
#8420000
0%
01
#8430000
1%
11
b10111011 8
#8440000
0%
01
#8450000
1%
11
b10111100 8
#8460000
0%
01
#8470000
1%
11
b10111101 8
#8480000
0%
01
#8490000
1%
11
b10111110 8
#8500000
0%
01
#8510000
1%
11
b10111111 8
#8520000
0%
01
#8530000
1%
11
b11000000 8
#8540000
0%
01
#8550000
1%
11
b11000001 8
#8560000
0%
01
#8570000
1%
11
b11000010 8
#8580000
0%
01
#8590000
1%
11
b11000011 8
#8600000
0%
01
#8610000
1%
11
b11000100 8
#8620000
0%
01
#8630000
1%
11
b11000101 8
#8640000
0%
01
#8650000
1%
11
b11000110 8
#8660000
0%
01
#8670000
1%
11
b11000111 8
#8680000
0%
01
#8690000
1%
11
b11001000 8
#8700000
0%
01
#8710000
1%
11
b11001001 8
#8720000
0%
01
#8730000
1%
11
b11001010 8
#8740000
0%
01
#8750000
1%
11
b11001011 8
#8760000
0%
01
#8770000
1%
11
b11001100 8
#8780000
0%
01
#8790000
1%
11
b11001101 8
#8800000
0%
01
#8810000
1%
11
b11001110 8
#8820000
0%
01
#8830000
1%
11
b11001111 8
#8840000
0%
01
#8850000
1%
11
b11010000 8
#8860000
0%
01
#8870000
1%
11
b11010001 8
#8880000
0%
01
#8890000
1%
11
b11010010 8
#8900000
0%
01
#8910000
1%
11
b11010011 8
#8920000
0%
01
#8930000
1%
11
b11010100 8
#8940000
0%
01
#8950000
1%
11
b11010101 8
#8960000
0%
01
#8970000
1%
11
1'
13
b11010110 8
#8980000
0%
01
#8990000
1%
11
1;
b11010111 8
#9000000
0%
01
#9010000
1%
11
1<
b11011000 8
#9020000
0%
01
#9030000
1%
11
b11011001 8
#9040000
0%
01
#9050000
1%
11
b11011010 8
#9060000
0%
01
#9070000
1%
11
b11011011 8
#9080000
0%
01
#9090000
1%
11
b11011100 8
#9100000
0%
01
#9110000
1%
11
b11011101 8
#9120000
0%
01
#9130000
1%
11
b11011110 8
#9140000
0%
01
#9150000
1%
11
b11011111 8
#9160000
0%
01
#9170000
1%
11
b11100000 8
#9180000
0%
01
#9190000
1%
11
b11100001 8
#9200000
0%
01
#9210000
1%
11
b11100010 8
#9220000
0%
01
#9230000
1%
11
b11100011 8
#9240000
0%
01
#9250000
1%
11
b11100100 8
#9260000
0%
01
#9270000
1%
11
b11100101 8
#9280000
0%
01
#9290000
1%
11
b11100110 8
#9300000
0%
01
#9310000
1%
11
b11100111 8
#9320000
0%
01
#9330000
1%
11
b11101000 8
#9340000
0%
01
#9350000
1%
11
b11101001 8
#9360000
0%
01
#9370000
1%
11
b11101010 8
#9380000
0%
01
#9390000
1%
11
b11101011 8
#9400000
0%
01
#9410000
1%
11
b11101100 8
#9420000
0%
01
#9430000
1%
11
b11101101 8
#9440000
0%
01
#9450000
1%
11
b11101110 8
#9460000
0%
01
#9470000
1%
11
b11101111 8
#9480000
0%
01
#9490000
1%
11
b11110000 8
#9500000
0%
01
#9510000
1%
11
b11110001 8
#9520000
0%
01
#9530000
1%
11
b11110010 8
#9540000
0%
01
#9550000
1%
11
b11110011 8
#9560000
0%
01
#9570000
1%
11
b11110100 8
#9580000
0%
01
#9590000
1%
11
b11110101 8
#9600000
0%
01
#9610000
1%
11
b11110110 8
#9620000
0%
01
#9630000
1%
11
b11110111 8
#9640000
0%
01
#9650000
1%
11
b11111000 8
#9660000
0%
01
#9670000
1%
11
b11111001 8
#9680000
0%
01
#9690000
1%
11
b11111010 8
#9700000
0%
01
#9710000
1%
11
b11111011 8
#9720000
0%
01
#9730000
1%
11
b11111100 8
#9740000
0%
01
#9750000
1%
11
b11111101 8
#9760000
0%
01
#9770000
1%
11
b11111110 8
#9780000
0%
01
#9790000
1%
11
b11111111 8
#9800000
0%
01
#9810000
1%
11
b100000000 8
#9820000
0%
01
#9830000
1%
11
b100000001 8
#9840000
0%
01
#9850000
1%
11
b100000010 8
#9860000
0%
01
#9870000
1%
11
b100000011 8
#9880000
0%
01
#9890000
1%
11
b100000100 8
#9900000
0%
01
#9910000
1%
11
b100000101 8
#9920000
0%
01
#9930000
1%
11
b100000110 8
#9940000
0%
01
#9950000
1%
11
b100000111 8
#9960000
0%
01
#9970000
1%
11
b100001000 8
#9980000
0%
01
#9990000
1%
11
b100001001 8
#10000000
0%
01
#10010000
1%
11
b100001010 8
#10020000
0%
01
#10030000
1%
11
b100001011 8
#10040000
0%
01
#10050000
1%
11
b100001100 8
#10060000
0%
01
#10070000
1%
11
b100001101 8
#10080000
0%
01
#10090000
1%
11
b100001110 8
#10100000
0%
01
#10110000
1%
11
b100001111 8
#10120000
0%
01
#10130000
1%
11
b100010000 8
#10140000
0%
01
#10150000
1%
11
b100010001 8
#10160000
0%
01
#10170000
1%
11
b100010010 8
#10180000
0%
01
#10190000
1%
11
b100010011 8
#10200000
0%
01
#10210000
1%
11
b100010100 8
#10220000
0%
01
#10230000
1%
11
b100010101 8
#10240000
0%
01
#10250000
1%
11
b100010110 8
#10260000
0%
01
#10270000
1%
11
b100010111 8
#10280000
0%
01
#10290000
1%
11
b100011000 8
#10300000
0%
01
#10310000
1%
11
b100011001 8
#10320000
0%
01
#10330000
1%
11
b100011010 8
#10340000
0%
01
#10350000
1%
11
b100011011 8
#10360000
0%
01
#10370000
1%
11
b100011100 8
#10380000
0%
01
#10390000
1%
11
b100011101 8
#10400000
0%
01
#10410000
1%
11
b100011110 8
#10420000
0%
01
#10430000
1%
11
b100011111 8
#10440000
0%
01
#10450000
1%
11
b100100000 8
#10460000
0%
01
#10470000
1%
11
b100100001 8
#10480000
0%
01
#10490000
1%
11
b100100010 8
#10500000
0%
01
#10510000
1%
11
b100100011 8
#10520000
0%
01
#10530000
1%
11
b100100100 8
#10540000
0%
01
#10550000
1%
11
b100100101 8
#10560000
0%
01
#10570000
1%
11
b100100110 8
#10580000
0%
01
#10590000
1%
11
b100100111 8
#10600000
0%
01
#10610000
1%
11
b100101000 8
#10620000
0%
01
#10630000
1%
11
b100101001 8
#10640000
0%
01
#10650000
1%
11
b100101010 8
#10660000
0%
01
#10670000
1%
11
b100101011 8
#10680000
0%
01
#10690000
1%
11
b100101100 8
#10700000
0%
01
#10710000
1%
11
b100101101 8
#10720000
0%
01
