tb_uart_tx_directed.vcd
$date
	Wed Apr 15 15:02:34 2026
$end
$version
	ModelSim Version 2020.1
$end
$timescale
	1ps
$end

$scope module tb_uart_tx_directed $end
$var parameter 32 ! CLK_FREQ $end
$var parameter 32 " BAUD_RATE $end
$var parameter 32 # CLKS_PER_BIT $end
$var parameter 32 $ CLK_PERIOD $end
$var reg 1 % clk $end
$var reg 1 & rst_n $end
$var reg 8 ' tx_data [7:0] $end
$var reg 1 ( tx_start $end
$var reg 1 ) tx $end
$var reg 1 * tx_busy $end
$var reg 1 + tx_done $end
$var integer 32 , pass_count $end
$var integer 32 - fail_count $end

$scope task send_and_capture $end
$upscope $end

$scope task verify_tx $end
$upscope $end

$scope module dut $end
$var parameter 32 . CLK_FREQ $end
$var parameter 32 / BAUD_RATE $end
$var parameter 32 0 CLKS_PER_BIT $end
$var wire 1 1 clk $end
$var wire 1 2 rst_n $end
$var wire 1 3 tx_data [7] $end
$var wire 1 4 tx_data [6] $end
$var wire 1 5 tx_data [5] $end
$var wire 1 6 tx_data [4] $end
$var wire 1 7 tx_data [3] $end
$var wire 1 8 tx_data [2] $end
$var wire 1 9 tx_data [1] $end
$var wire 1 : tx_data [0] $end
$var wire 1 ; tx_start $end
$var reg 1 < tx $end
$var reg 1 = tx_busy $end
$var reg 1 > tx_done $end
$var reg 3 ? state [2:0] $end
$var reg 16 @ clk_count [15:0] $end
$var reg 3 A bit_index [2:0] $end
$var reg 8 B tx_shift [7:0] $end
$var reg 1 C parity_bit $end
$upscope $end
$upscope $end
$enddefinitions $end
#0
$dumpvars
0%
0&
b0 '
0(
1)
0*
0+
1<
0=
0>
b0 ?
b0 @
b0 A
b0 B
0C
b10111110101111000010000000 !
b11100001000000000 "
b110110010 #
b10100 $
b10111110101111000010000000 .
b11100001000000000 /
b110110010 0
b0 ,
b0 -
01
02
0:
09
08
07
06
05
04
03
0;
$end
#10000
1%
11
#20000
0%
01
#30000
1%
11
#40000
0%
01
#50000
1%
11
#60000
0%
01
#70000
1%
11
#80000
0%
01
#90000
1%
11
#100000
0%
01
#110000
1%
11
#120000
0%
01
#130000
1%
11
#140000
0%
01
#150000
1%
11
#160000
0%
01
#170000
1%
11
#180000
0%
01
#190000
1%
11
1&
12
#200000
0%
01
#210000
1%
11
#220000
0%
01
#230000
1%
11
#240000
0%
01
#250000
1%
11
#260000
0%
01
#270000
1%
11
#280000
0%
01
#290000
1%
11
b10100101 '
1(
1:
18
15
13
1;
#300000
0%
01
#310000
1%
11
0(
0;
b10100101 B
1C
1=
b1 ?
1*
#320000
0%
01
#330000
1%
11
0<
b1 @
0)
#340000
0%
01
#350000
1%
11
b10 @
#360000
0%
01
#370000
1%
11
b11 @
#380000
0%
01
#390000
1%
11
b100 @
#400000
0%
01
#410000
1%
11
b101 @
#420000
0%
01
#430000
1%
11
b110 @
#440000
0%
01
#450000
1%
11
b111 @
#460000
0%
01
#470000
1%
11
b1000 @
#480000
0%
01
#490000
1%
11
b1001 @
#500000
0%
01
#510000
1%
11
b1010 @
#520000
0%
01
#530000
1%
11
b1011 @
#540000
0%
01
#550000
1%
11
b1100 @
#560000
0%
01
#570000
1%
11
b1101 @
#580000
0%
01
#590000
1%
11
b1110 @
#600000
0%
01
#610000
1%
11
b1111 @
#620000
0%
01
#630000
1%
11
b10000 @
#640000
0%
01
#650000
1%
11
b10001 @
#660000
0%
01
#670000
1%
11
b10010 @
#680000
0%
01
#690000
1%
11
b10011 @
#700000
0%
01
#710000
1%
11
b10100 @
#720000
0%
01
#730000
1%
11
b10101 @
#740000
0%
01
#750000
1%
11
b10110 @
#760000
0%
01
#770000
1%
11
b10111 @
#780000
0%
01
#790000
1%
11
b11000 @
#800000
0%
01
#810000
1%
11
b11001 @
#820000
0%
01
#830000
1%
11
b11010 @
#840000
0%
01
#850000
1%
11
b11011 @
#860000
0%
01
#870000
1%
11
b11100 @
#880000
0%
01
#890000
1%
11
b11101 @
#900000
0%
01
#910000
1%
11
b11110 @
#920000
0%
01
#930000
1%
11
b11111 @
#940000
0%
01
#950000
1%
11
b100000 @
#960000
0%
01
#970000
1%
11
b100001 @
#980000
0%
01
#990000
1%
11
b100010 @
#1000000
0%
01
#1010000
1%
11
b100011 @
#1020000
0%
01
#1030000
1%
11
b100100 @
#1040000
0%
01
#1050000
1%
11
b100101 @
#1060000
0%
01
#1070000
1%
11
b100110 @
#1080000
0%
01
#1090000
1%
11
b100111 @
#1100000
0%
01
#1110000
1%
11
b101000 @
#1120000
0%
01
#1130000
1%
11
b101001 @
#1140000
0%
01
#1150000
1%
11
b101010 @
#1160000
0%
01
#1170000
1%
11
b101011 @
#1180000
0%
01
#1190000
1%
11
b101100 @
#1200000
0%
01
#1210000
1%
11
b101101 @
#1220000
0%
01
#1230000
1%
11
b101110 @
#1240000
0%
01
#1250000
1%
11
b101111 @
#1260000
0%
01
#1270000
1%
11
b110000 @
#1280000
0%
01
#1290000
1%
11
b110001 @
#1300000
0%
01
#1310000
1%
11
b110010 @
#1320000
0%
01
#1330000
1%
11
b110011 @
#1340000
0%
01
#1350000
1%
11
b110100 @
#1360000
0%
01
#1370000
1%
11
b110101 @
#1380000
0%
01
#1390000
1%
11
b110110 @
#1400000
0%
01
#1410000
1%
11
b110111 @
#1420000
0%
01
#1430000
1%
11
b111000 @
#1440000
0%
01
#1450000
1%
11
b111001 @
#1460000
0%
01
#1470000
1%
11
b111010 @
#1480000
0%
01
#1490000
1%
11
b111011 @
#1500000
0%
01
#1510000
1%
11
b111100 @
#1520000
0%
01
#1530000
1%
11
b111101 @
#1540000
0%
01
#1550000
1%
11
b111110 @
#1560000
0%
01
#1570000
1%
11
b111111 @
#1580000
0%
01
#1590000
1%
11
b1000000 @
#1600000
0%
01
#1610000
1%
11
b1000001 @
#1620000
0%
01
#1630000
1%
11
b1000010 @
#1640000
0%
01
#1650000
1%
11
b1000011 @
#1660000
0%
01
#1670000
1%
11
b1000100 @
#1680000
0%
01
#1690000
1%
11
b1000101 @
#1700000
0%
01
#1710000
1%
11
b1000110 @
#1720000
0%
01
#1730000
1%
11
b1000111 @
#1740000
0%
01
#1750000
1%
11
b1001000 @
#1760000
0%
01
#1770000
1%
11
b1001001 @
#1780000
0%
01
#1790000
1%
11
b1001010 @
#1800000
0%
01
#1810000
1%
11
b1001011 @
#1820000
0%
01
#1830000
1%
11
b1001100 @
#1840000
0%
01
#1850000
1%
11
b1001101 @
#1860000
0%
01
#1870000
1%
11
b1001110 @
#1880000
0%
01
#1890000
1%
11
b1001111 @
#1900000
0%
01
#1910000
1%
11
b1010000 @
#1920000
0%
01
#1930000
1%
11
b1010001 @
#1940000
0%
01
#1950000
1%
11
b1010010 @
#1960000
0%
01
#1970000
1%
11
b1010011 @
#1980000
0%
01
#1990000
1%
11
b1010100 @
#2000000
0%
01
#2010000
1%
11
b1010101 @
#2020000
0%
01
#2030000
1%
11
b1010110 @
#2040000
0%
01
#2050000
1%
11
b1010111 @
#2060000
0%
01
#2070000
1%
11
b1011000 @
#2080000
0%
01
#2090000
1%
11
b1011001 @
#2100000
0%
01
#2110000
1%
11
b1011010 @
#2120000
0%
01
#2130000
1%
11
b1011011 @
#2140000
0%
01
#2150000
1%
11
b1011100 @
#2160000
0%
01
#2170000
1%
11
b1011101 @
#2180000
0%
01
#2190000
1%
11
b1011110 @
#2200000
0%
01
#2210000
1%
11
b1011111 @
#2220000
0%
01
#2230000
1%
11
b1100000 @
#2240000
0%
01
#2250000
1%
11
b1100001 @
#2260000
0%
01
#2270000
1%
11
b1100010 @
#2280000
0%
01
#2290000
1%
11
b1100011 @
#2300000
0%
01
#2310000
1%
11
b1100100 @
#2320000
0%
01
#2330000
1%
11
b1100101 @
#2340000
0%
01
#2350000
1%
11
b1100110 @
#2360000
0%
01
#2370000
1%
11
b1100111 @
#2380000
0%
01
#2390000
1%
11
b1101000 @
#2400000
0%
01
#2410000
1%
11
b1101001 @
#2420000
0%
01
#2430000
1%
11
b1101010 @
#2440000
0%
01
#2450000
1%
11
b1101011 @
#2460000
0%
01
#2470000
1%
11
b1101100 @
#2480000
0%
01
#2490000
1%
11
b1101101 @
#2500000
0%
01
#2510000
1%
11
b1101110 @
#2520000
0%
01
#2530000
1%
11
b1101111 @
#2540000
0%
01
#2550000
1%
11
b1110000 @
#2560000
0%
01
#2570000
1%
11
b1110001 @
#2580000
0%
01
#2590000
1%
11
b1110010 @
#2600000
0%
01
#2610000
1%
11
b1110011 @
#2620000
0%
01
#2630000
1%
11
b1110100 @
#2640000
0%
01
#2650000
1%
11
b1110101 @
#2660000
0%
01
#2670000
1%
11
b1110110 @
#2680000
0%
01
#2690000
1%
11
b1110111 @
#2700000
0%
01
#2710000
1%
11
b1111000 @
#2720000
0%
01
#2730000
1%
11
b1111001 @
#2740000
0%
01
#2750000
1%
11
b1111010 @
#2760000
0%
01
#2770000
1%
11
b1111011 @
#2780000
0%
01
#2790000
1%
11
b1111100 @
#2800000
0%
01
#2810000
1%
11
b1111101 @
#2820000
0%
01
#2830000
1%
11
b1111110 @
#2840000
0%
01
#2850000
1%
11
b1111111 @
#2860000
0%
01
#2870000
1%
11
b10000000 @
#2880000
0%
01
#2890000
1%
11
b10000001 @
#2900000
0%
01
#2910000
1%
11
b10000010 @
#2920000
0%
01
#2930000
1%
11
b10000011 @
#2940000
0%
01
#2950000
1%
11
b10000100 @
#2960000
0%
01
#2970000
1%
11
b10000101 @
#2980000
0%
01
#2990000
1%
11
b10000110 @
#3000000
0%
01
#3010000
1%
11
b10000111 @
#3020000
0%
01
#3030000
1%
11
b10001000 @
#3040000
0%
01
#3050000
1%
11
b10001001 @
#3060000
0%
01
#3070000
1%
11
b10001010 @
#3080000
0%
01
#3090000
1%
11
b10001011 @
#3100000
0%
01
#3110000
1%
11
b10001100 @
#3120000
0%
01
#3130000
1%
11
b10001101 @
#3140000
0%
01
#3150000
1%
11
b10001110 @
#3160000
0%
01
#3170000
1%
11
b10001111 @
#3180000
0%
01
#3190000
1%
11
b10010000 @
#3200000
0%
01
#3210000
1%
11
b10010001 @
#3220000
0%
01
#3230000
1%
11
b10010010 @
#3240000
0%
01
#3250000
1%
11
b10010011 @
#3260000
0%
01
#3270000
1%
11
b10010100 @
#3280000
0%
01
#3290000
1%
11
b10010101 @
#3300000
0%
01
#3310000
1%
11
b10010110 @
#3320000
0%
01
#3330000
1%
11
b10010111 @
#3340000
0%
01
#3350000
1%
11
b10011000 @
#3360000
0%
01
#3370000
1%
11
b10011001 @
#3380000
0%
01
#3390000
1%
11
b10011010 @
#3400000
0%
01
#3410000
1%
11
b10011011 @
#3420000
0%
01
#3430000
1%
11
b10011100 @
#3440000
0%
01
#3450000
1%
11
b10011101 @
#3460000
0%
01
#3470000
1%
11
b10011110 @
#3480000
0%
01
#3490000
1%
11
b10011111 @
#3500000
0%
01
#3510000
1%
11
b10100000 @
#3520000
0%
01
#3530000
1%
11
b10100001 @
#3540000
0%
01
#3550000
1%
11
b10100010 @
#3560000
0%
01
#3570000
1%
11
b10100011 @
#3580000
0%
01
#3590000
1%
11
b10100100 @
#3600000
0%
01
#3610000
1%
11
b10100101 @
#3620000
0%
01
#3630000
1%
11
b10100110 @
#3640000
0%
01
#3650000
1%
11
b10100111 @
#3660000
0%
01
#3670000
1%
11
b10101000 @
#3680000
0%
01
#3690000
1%
11
b10101001 @
#3700000
0%
01
#3710000
1%
11
b10101010 @
#3720000
0%
01
#3730000
1%
11
b10101011 @
#3740000
0%
01
#3750000
1%
11
b10101100 @
#3760000
0%
01
#3770000
1%
11
b10101101 @
#3780000
0%
01
#3790000
1%
11
b10101110 @
#3800000
0%
01
#3810000
1%
11
b10101111 @
#3820000
0%
01
#3830000
1%
11
b10110000 @
#3840000
0%
01
#3850000
1%
11
b10110001 @
#3860000
0%
01
#3870000
1%
11
b10110010 @
#3880000
0%
01
#3890000
1%
11
b10110011 @
#3900000
0%
01
#3910000
1%
11
b10110100 @
#3920000
0%
01
#3930000
1%
11
b10110101 @
#3940000
0%
01
#3950000
1%
11
b10110110 @
#3960000
0%
01
#3970000
1%
11
b10110111 @
#3980000
0%
01
#3990000
1%
11
b10111000 @
#4000000
0%
01
#4010000
1%
11
b10111001 @
#4020000
0%
01
#4030000
1%
11
b10111010 @
#4040000
0%
01
#4050000
1%
11
b10111011 @
#4060000
0%
01
#4070000
1%
11
b10111100 @
#4080000
0%
01
#4090000
1%
11
b10111101 @
#4100000
0%
01
#4110000
1%
11
b10111110 @
#4120000
0%
01
#4130000
1%
11
b10111111 @
#4140000
0%
01
#4150000
1%
11
b11000000 @
#4160000
0%
01
#4170000
1%
11
b11000001 @
#4180000
0%
01
#4190000
1%
11
b11000010 @
#4200000
0%
01
#4210000
1%
11
b11000011 @
#4220000
0%
01
#4230000
1%
11
b11000100 @
#4240000
0%
01
#4250000
1%
11
b11000101 @
#4260000
0%
01
#4270000
1%
11
b11000110 @
#4280000
0%
01
#4290000
1%
11
b11000111 @
#4300000
0%
01
#4310000
1%
11
b11001000 @
#4320000
0%
01
#4330000
1%
11
b11001001 @
#4340000
0%
01
#4350000
1%
11
b11001010 @
#4360000
0%
01
#4370000
1%
11
b11001011 @
#4380000
0%
01
#4390000
1%
11
b11001100 @
#4400000
0%
01
#4410000
1%
11
b11001101 @
#4420000
0%
01
#4430000
1%
11
b11001110 @
#4440000
0%
01
#4450000
1%
11
b11001111 @
#4460000
0%
01
#4470000
1%
11
b11010000 @
#4480000
0%
01
#4490000
1%
11
b11010001 @
#4500000
0%
01
#4510000
1%
11
b11010010 @
#4520000
0%
01
#4530000
1%
11
b11010011 @
#4540000
0%
01
#4550000
1%
11
b11010100 @
#4560000
0%
01
#4570000
1%
11
b11010101 @
#4580000
0%
01
#4590000
1%
11
b11010110 @
#4600000
0%
01
#4610000
1%
11
b11010111 @
#4620000
0%
01
#4630000
1%
11
b11011000 @
#4640000
0%
01
#4650000
1%
11
b11011001 @
#4660000
0%
01
#4670000
1%
11
b11011010 @
#4680000
0%
01
#4690000
1%
11
b11011011 @
#4700000
0%
01
#4710000
1%
11
b11011100 @
#4720000
0%
01
#4730000
1%
11
b11011101 @
#4740000
0%
01
#4750000
1%
11
b11011110 @
#4760000
0%
01
#4770000
1%
11
b11011111 @
#4780000
0%
01
#4790000
1%
11
b11100000 @
#4800000
0%
01
#4810000
1%
11
b11100001 @
#4820000
0%
01
#4830000
1%
11
b11100010 @
#4840000
0%
01
#4850000
1%
11
b11100011 @
#4860000
0%
01
#4870000
1%
11
b11100100 @
#4880000
0%
01
#4890000
1%
11
b11100101 @
#4900000
0%
01
#4910000
1%
11
b11100110 @
#4920000
0%
01
#4930000
1%
11
b11100111 @
#4940000
0%
01
#4950000
1%
11
b11101000 @
#4960000
0%
01
#4970000
1%
11
b11101001 @
#4980000
0%
01
#4990000
1%
11
b11101010 @
#5000000
0%
01
#5010000
1%
11
b11101011 @
#5020000
0%
01
#5030000
1%
11
b11101100 @
#5040000
0%
01
#5050000
1%
11
b11101101 @
#5060000
0%
01
#5070000
1%
11
b11101110 @
#5080000
0%
01
#5090000
1%
11
b11101111 @
#5100000
0%
01
#5110000
1%
11
b11110000 @
#5120000
0%
01
#5130000
1%
11
b11110001 @
#5140000
0%
01
#5150000
1%
11
b11110010 @
#5160000
0%
01
#5170000
1%
11
b11110011 @
#5180000
0%
01
#5190000
1%
11
b11110100 @
#5200000
0%
01
#5210000
1%
11
b11110101 @
#5220000
0%
01
#5230000
1%
11
b11110110 @
#5240000
0%
01
#5250000
1%
11
b11110111 @
#5260000
0%
01
#5270000
1%
11
b11111000 @
#5280000
0%
01
#5290000
1%
11
b11111001 @
#5300000
0%
01
#5310000
1%
11
b11111010 @
#5320000
0%
01
#5330000
1%
11
b11111011 @
#5340000
0%
01
#5350000
1%
11
b11111100 @
#5360000
0%
01
#5370000
1%
11
b11111101 @
#5380000
0%
01
#5390000
1%
11
b11111110 @
#5400000
0%
01
#5410000
1%
11
b11111111 @
#5420000
0%
01
#5430000
1%
11
b100000000 @
#5440000
0%
01
#5450000
1%
11
b100000001 @
#5460000
0%
01
#5470000
1%
11
b100000010 @
#5480000
0%
01
#5490000
1%
11
b100000011 @
#5500000
0%
01
#5510000
1%
11
b100000100 @
#5520000
0%
01
#5530000
1%
11
b100000101 @
#5540000
0%
01
#5550000
1%
11
b100000110 @
#5560000
0%
01
#5570000
1%
11
b100000111 @
#5580000
0%
01
#5590000
1%
11
b100001000 @
#5600000
0%
01
#5610000
1%
11
b100001001 @
#5620000
0%
01
#5630000
1%
11
b100001010 @
#5640000
0%
01
#5650000
1%
11
b100001011 @
#5660000
0%
01
#5670000
1%
11
b100001100 @
#5680000
0%
01
#5690000
1%
11
b100001101 @
#5700000
0%
01
#5710000
1%
11
b100001110 @
#5720000
0%
01
#5730000
1%
11
b100001111 @
#5740000
0%
01
#5750000
1%
11
b100010000 @
#5760000
0%
01
#5770000
1%
11
b100010001 @
#5780000
0%
01
#5790000
1%
11
b100010010 @
#5800000
0%
01
#5810000
1%
11
b100010011 @
#5820000
0%
01
#5830000
1%
11
b100010100 @
#5840000
0%
01
#5850000
1%
11
b100010101 @
#5860000
0%
01
#5870000
1%
11
b100010110 @
#5880000
0%
01
#5890000
1%
11
b100010111 @
#5900000
0%
01
#5910000
1%
11
b100011000 @
#5920000
0%
01
#5930000
1%
11
b100011001 @
#5940000
0%
01
#5950000
1%
11
b100011010 @
#5960000
0%
01
#5970000
1%
11
b100011011 @
#5980000
0%
01
#5990000
1%
11
b100011100 @
#6000000
0%
01
#6010000
1%
11
b100011101 @
#6020000
0%
01
#6030000
1%
11
b100011110 @
#6040000
0%
01
#6050000
1%
11
b100011111 @
#6060000
0%
01
#6070000
1%
11
b100100000 @
#6080000
0%
01
#6090000
1%
11
b100100001 @
#6100000
0%
01
#6110000
1%
11
b100100010 @
#6120000
0%
01
#6130000
1%
11
b100100011 @
#6140000
0%
01
#6150000
1%
11
b100100100 @
#6160000
0%
01
#6170000
1%
11
b100100101 @
#6180000
0%
01
#6190000
1%
11
b100100110 @
#6200000
0%
01
#6210000
1%
11
b100100111 @
#6220000
0%
01
#6230000
1%
11
b100101000 @
#6240000
0%
01
#6250000
1%
11
b100101001 @
#6260000
0%
01
#6270000
1%
11
b100101010 @
#6280000
0%
01
#6290000
1%
11
b100101011 @
#6300000
0%
01
#6310000
1%
11
b100101100 @
#6320000
0%
01
#6330000
1%
11
b100101101 @
#6340000
0%
01
#6350000
1%
11
b100101110 @
#6360000
0%
01
#6370000
1%
11
b100101111 @
#6380000
0%
01
#6390000
1%
11
b100110000 @
#6400000
0%
01
#6410000
1%
11
b100110001 @
#6420000
0%
01
#6430000
1%
11
b100110010 @
#6440000
0%
01
#6450000
1%
11
b100110011 @
#6460000
0%
01
#6470000
1%
11
b100110100 @
#6480000
0%
01
#6490000
1%
11
b100110101 @
#6500000
0%
01
#6510000
1%
11
b100110110 @
#6520000
0%
01
#6530000
1%
11
b100110111 @
#6540000
0%
01
#6550000
1%
11
b100111000 @
#6560000
0%
01
#6570000
1%
11
b100111001 @
#6580000
0%
01
#6590000
1%
11
b100111010 @
#6600000
0%
01
#6610000
1%
11
b100111011 @
#6620000
0%
01
#6630000
1%
11
b100111100 @
#6640000
0%
01
#6650000
1%
11
b100111101 @
#6660000
0%
01
#6670000
1%
11
b100111110 @
#6680000
0%
01
#6690000
1%
11
b100111111 @
#6700000
0%
01
#6710000
1%
11
b101000000 @
#6720000
0%
01
#6730000
1%
11
b101000001 @
#6740000
0%
01
#6750000
1%
11
b101000010 @
#6760000
0%
01
#6770000
1%
11
b101000011 @
#6780000
0%
01
#6790000
1%
11
b101000100 @
#6800000
0%
01
#6810000
1%
11
b101000101 @
#6820000
0%
01
#6830000
1%
11
b101000110 @
#6840000
0%
01
#6850000
1%
11
b101000111 @
#6860000
0%
01
#6870000
1%
11
b101001000 @
#6880000
0%
01
#6890000
1%
11
b101001001 @
#6900000
0%
01
#6910000
1%
11
b101001010 @
#6920000
0%
01
#6930000
1%
11
b101001011 @
#6940000
0%
01
#6950000
1%
11
b101001100 @
#6960000
0%
01
#6970000
1%
11
b101001101 @
#6980000
0%
01
#6990000
1%
11
b101001110 @
#7000000
0%
01
#7010000
1%
11
b101001111 @
#7020000
0%
01
#7030000
1%
11
b101010000 @
#7040000
0%
01
#7050000
1%
11
b101010001 @
#7060000
0%
01
#7070000
1%
11
b101010010 @
#7080000
0%
01
#7090000
1%
11
b101010011 @
#7100000
0%
01
#7110000
1%
11
b101010100 @
#7120000
0%
01
#7130000
1%
11
b101010101 @
#7140000
0%
01
#7150000
1%
11
b101010110 @
#7160000
0%
01
#7170000
1%
11
b101010111 @
#7180000
0%
01
#7190000
1%
11
b101011000 @
#7200000
0%
01
#7210000
1%
11
b101011001 @
#7220000
0%
01
#7230000
1%
11
b101011010 @
#7240000
0%
01
#7250000
1%
11
b101011011 @
#7260000
0%
01
#7270000
1%
11
b101011100 @
#7280000
0%
01
#7290000
1%
11
b101011101 @
#7300000
0%
01
#7310000
1%
11
b101011110 @
#7320000
0%
01
#7330000
1%
11
b101011111 @
#7340000
0%
01
#7350000
1%
11
b101100000 @
#7360000
0%
01
#7370000
1%
11
b101100001 @
#7380000
0%
01
#7390000
1%
11
b101100010 @
#7400000
0%
01
#7410000
1%
11
b101100011 @
#7420000
0%
01
#7430000
1%
11
b101100100 @
#7440000
0%
01
#7450000
1%
11
b101100101 @
#7460000
0%
01
#7470000
1%
11
b101100110 @
#7480000
0%
01
#7490000
1%
11
b101100111 @
#7500000
0%
01
#7510000
1%
11
b101101000 @
#7520000
0%
01
#7530000
1%
11
b101101001 @
#7540000
0%
01
#7550000
1%
11
b101101010 @
#7560000
0%
01
#7570000
1%
11
b101101011 @
#7580000
0%
01
#7590000
1%
11
b101101100 @
#7600000
0%
01
#7610000
1%
11
b101101101 @
#7620000
0%
01
#7630000
1%
11
b101101110 @
#7640000
0%
01
#7650000
1%
11
b101101111 @
#7660000
0%
01
#7670000
1%
11
b101110000 @
#7680000
0%
01
#7690000
1%
11
b101110001 @
#7700000
0%
01
#7710000
1%
11
b101110010 @
#7720000
0%
01
#7730000
1%
11
b101110011 @
#7740000
0%
01
#7750000
1%
11
b101110100 @
#7760000
0%
01
#7770000
1%
11
b101110101 @
#7780000
0%
01
#7790000
1%
11
b101110110 @
#7800000
0%
01
#7810000
1%
11
b101110111 @
#7820000
0%
01
#7830000
1%
11
b101111000 @
#7840000
0%
01
#7850000
1%
11
b101111001 @
#7860000
0%
01
#7870000
1%
11
b101111010 @
#7880000
0%
01
#7890000
1%
11
b101111011 @
#7900000
0%
01
#7910000
1%
11
b101111100 @
#7920000
0%
01
#7930000
1%
11
b101111101 @
#7940000
0%
01
#7950000
1%
11
b101111110 @
#7960000
0%
01
#7970000
1%
11
b101111111 @
#7980000
0%
01
#7990000
1%
11
b110000000 @
#8000000
0%
01
#8010000
1%
11
b110000001 @
#8020000
0%
01
#8030000
1%
11
b110000010 @
#8040000
0%
01
#8050000
1%
11
b110000011 @
#8060000
0%
01
#8070000
1%
11
b110000100 @
#8080000
0%
01
#8090000
1%
11
b110000101 @
#8100000
0%
01
#8110000
1%
11
b110000110 @
#8120000
0%
01
#8130000
1%
11
b110000111 @
#8140000
0%
01
#8150000
1%
11
b110001000 @
#8160000
0%
01
#8170000
1%
11
b110001001 @
#8180000
0%
01
#8190000
1%
11
b110001010 @
#8200000
0%
01
#8210000
1%
11
b110001011 @
#8220000
0%
01
#8230000
1%
11
b110001100 @
#8240000
0%
01
#8250000
1%
11
b110001101 @
#8260000
0%
01
#8270000
1%
11
b110001110 @
#8280000
0%
01
#8290000
1%
11
b110001111 @
#8300000
0%
01
#8310000
1%
11
b110010000 @
#8320000
0%
01
#8330000
1%
11
b110010001 @
#8340000
0%
01
#8350000
1%
11
b110010010 @
#8360000
0%
01
#8370000
1%
11
b110010011 @
#8380000
0%
01
#8390000
1%
11
b110010100 @
#8400000
0%
01
#8410000
1%
11
b110010101 @
#8420000
0%
01
#8430000
1%
11
b110010110 @
#8440000
0%
01
#8450000
1%
11
b110010111 @
#8460000
0%
01
#8470000
1%
11
b110011000 @
#8480000
0%
01
#8490000
1%
11
b110011001 @
#8500000
0%
01
#8510000
1%
11
b110011010 @
#8520000
0%
01
#8530000
1%
11
b110011011 @
#8540000
0%
01
#8550000
1%
11
b110011100 @
#8560000
0%
01
#8570000
1%
11
b110011101 @
#8580000
0%
01
#8590000
1%
11
b110011110 @
#8600000
0%
01
#8610000
1%
11
b110011111 @
#8620000
0%
01
#8630000
1%
11
b110100000 @
#8640000
0%
01
#8650000
1%
11
b110100001 @
#8660000
0%
01
#8670000
1%
11
b110100010 @
#8680000
0%
01
#8690000
1%
11
b110100011 @
#8700000
0%
01
#8710000
1%
11
b110100100 @
#8720000
0%
01
#8730000
1%
11
b110100101 @
#8740000
0%
01
#8750000
1%
11
b110100110 @
#8760000
0%
01
#8770000
1%
11
b110100111 @
#8780000
0%
01
#8790000
1%
11
b110101000 @
#8800000
0%
01
#8810000
1%
11
b110101001 @
#8820000
0%
01
#8830000
1%
11
b110101010 @
#8840000
0%
01
#8850000
1%
11
b110101011 @
#8860000
0%
01
#8870000
1%
11
b110101100 @
#8880000
0%
01
#8890000
1%
11
b110101101 @
#8900000
0%
01
#8910000
1%
11
b110101110 @
#8920000
0%
01
#8930000
1%
11
b110101111 @
#8940000
0%
01
#8950000
1%
11
b110110000 @
#8960000
0%
01
#8970000
1%
11
b110110001 @
#8980000
0%
01
#8990000
1%
11
b0 @
b10 ?
#9000000
0%
01
#9010000
1%
11
1<
b1 @
1)
#9020000
0%
01
#9030000
1%
11
b10 @
#9040000
0%
01
#9050000
1%
11
b11 @
#9060000
0%
01
#9070000
1%
11
b100 @
#9080000
0%
01
#9090000
1%
11
b101 @
#9100000
0%
01
#9110000
1%
11
b110 @
#9120000
0%
01
#9130000
1%
11
b111 @
#9140000
0%
01
#9150000
1%
11
b1000 @
#9160000
0%
01
#9170000
1%
11
b1001 @
#9180000
0%
01
#9190000
1%
11
b1010 @
#9200000
0%
01
#9210000
1%
11
b1011 @
#9220000
0%
01
#9230000
1%
11
b1100 @
#9240000
0%
01
#9250000
1%
11
b1101 @
#9260000
0%
01
#9270000
1%
11
b1110 @
#9280000
0%
01
#9290000
1%
11
b1111 @
#9300000
0%
01
#9310000
1%
11
b10000 @
#9320000
0%
01
#9330000
1%
11
b10001 @
#9340000
0%
01
#9350000
1%
11
b10010 @
#9360000
0%
01
#9370000
1%
11
b10011 @
#9380000
0%
01
#9390000
1%
11
b10100 @
#9400000
0%
01
#9410000
1%
11
b10101 @
#9420000
0%
01
#9430000
1%
11
b10110 @
#9440000
0%
01
#9450000
1%
11
b10111 @
#9460000
0%
01
#9470000
1%
11
b11000 @
#9480000
0%
01
#9490000
1%
11
b11001 @
#9500000
0%
01
#9510000
1%
11
b11010 @
#9520000
0%
01
#9530000
1%
11
b11011 @
#9540000
0%
01
#9550000
1%
11
b11100 @
#9560000
0%
01
#9570000
1%
11
b11101 @
#9580000
0%
01
#9590000
1%
11
b11110 @
#9600000
0%
01
#9610000
1%
11
b11111 @
#9620000
0%
01
#9630000
1%
11
b100000 @
#9640000
0%
01
#9650000
1%
11
b100001 @
#9660000
0%
01
#9670000
1%
11
b100010 @
#9680000
0%
01
#9690000
1%
11
b100011 @
#9700000
0%
01
#9710000
1%
11
b100100 @
#9720000
0%
01
#9730000
1%
11
b100101 @
#9740000
0%
01
#9750000
1%
11
b100110 @
#9760000
0%
01
#9770000
1%
11
b100111 @
#9780000
0%
01
#9790000
1%
11
b101000 @
#9800000
0%
01
#9810000
1%
11
b101001 @
#9820000
0%
01
#9830000
1%
11
b101010 @
#9840000
0%
01
#9850000
1%
11
b101011 @
#9860000
0%
01
#9870000
1%
11
b101100 @
#9880000
0%
01
#9890000
1%
11
b101101 @
#9900000
0%
01
#9910000
1%
11
b101110 @
#9920000
0%
01
#9930000
1%
11
b101111 @
#9940000
0%
01
#9950000
1%
11
b110000 @
#9960000
0%
01
#9970000
1%
11
b110001 @
#9980000
0%
01
#9990000
1%
11
b110010 @
#10000000
0%
01
#10010000
1%
11
b110011 @
#10020000
0%
01
#10030000
1%
11
b110100 @
#10040000
0%
01
#10050000
1%
11
b110101 @
#10060000
0%
01
#10070000
1%
11
b110110 @
#10080000
0%
01
#10090000
1%
11
b110111 @
#10100000
0%
01
#10110000
1%
11
b111000 @
#10120000
0%
01
#10130000
1%
11
b111001 @
#10140000
0%
01
#10150000
1%
11
b111010 @
#10160000
0%
01
#10170000
1%
11
b111011 @
#10180000
0%
01
#10190000
1%
11
b111100 @
#10200000
0%
01
#10210000
1%
11
b111101 @
#10220000
0%
01
#10230000
1%
11
b111110 @
#10240000
0%
01
#10250000
1%
11
b111111 @
#10260000
0%
01
#10270000
1%
11
b1000000 @
#10280000
0%
01
#10290000
1%
11
b1000001 @
#10300000
0%
01
#10310000
1%
11
b1000010 @
#10320000
0%
01
#10330000
1%
11
b1000011 @
#10340000
0%
01
#10350000
1%
11
b1000100 @
#10360000
0%
01
#10370000
1%
11
b1000101 @
#10380000
0%
01
#10390000
1%
11
b1000110 @
#10400000
0%
01
#10410000
1%
11
b1000111 @
#10420000
0%
01
#10430000
1%
11
b1001000 @
#10440000
0%
01
#10450000
1%
11
b1001001 @
#10460000
0%
01
#10470000
1%
11
b1001010 @
#10480000
0%
01
#10490000
1%
11
b1001011 @
#10500000
0%
01
#10510000
1%
11
b1001100 @
#10520000
0%
01
#10530000
1%
11
b1001101 @
#10540000
0%
01
#10550000
1%
11
b1001110 @
#10560000
0%
01
#10570000
1%
11
b1001111 @
#10580000
0%
01
#10590000
1%
11
b1010000 @
#10600000
0%
01
